%TF.GenerationSoftware,KiCad,Pcbnew,6.0.8-f2edbf62ab~116~ubuntu20.04.1*%
%TF.CreationDate,2022-10-11T23:58:19-03:00*%
%TF.ProjectId,Proyecto_p_curso,50726f79-6563-4746-9f5f-705f63757273,rev?*%
%TF.SameCoordinates,Original*%
%TF.FileFunction,Profile,NP*%
%FSLAX46Y46*%
G04 Gerber Fmt 4.6, Leading zero omitted, Abs format (unit mm)*
G04 Created by KiCad (PCBNEW 6.0.8-f2edbf62ab~116~ubuntu20.04.1) date 2022-10-11 23:58:19*
%MOMM*%
%LPD*%
G01*
G04 APERTURE LIST*
%TA.AperFunction,Profile*%
%ADD10C,0.100000*%
%TD*%
G04 APERTURE END LIST*
D10*
X110280000Y-62750000D02*
X200280000Y-62750000D01*
X200280000Y-62750000D02*
X200280000Y-144000000D01*
X200280000Y-144000000D02*
X110280000Y-144000000D01*
X110280000Y-144000000D02*
X110280000Y-62750000D01*
M02*
